step-3/deliverable/deliverable-to-be-zipped/verilog/code/control_waveform.vcd
$date
	Wed Apr 29 22:43:16 2026
$end
$version
	Icarus Verilog
$end
$timescale
	1s
$end
$scope module control_tb $end
$var wire 8 ! out [7:0] $end
$var reg 4 " A [3:0] $end
$var reg 4 # B [3:0] $end
$var reg 4 $ opcode [3:0] $end
$var integer 32 % errors [31:0] $end
$scope module DUT $end
$var wire 4 & A [3:0] $end
$var wire 4 ' B [3:0] $end
$var wire 4 ( opcode [3:0] $end
$var wire 8 ) xorOutput [7:0] $end
$var wire 8 * xnorOutput [7:0] $end
$var wire 8 + subOutput [7:0] $end
$var wire 8 , shiftOutput [7:0] $end
$var wire 8 - orOutput [7:0] $end
$var wire 8 . notOutput [7:0] $end
$var wire 8 / norOutput [7:0] $end
$var wire 8 0 nandOutput [7:0] $end
$var wire 8 1 mulOutput [7:0] $end
$var wire 8 2 divOutput [7:0] $end
$var wire 8 3 andOutput [7:0] $end
$var wire 8 4 addOutput [7:0] $end
$var reg 8 5 out [7:0] $end
$scope module ADD $end
$var wire 4 6 A [3:0] $end
$var wire 4 7 B [3:0] $end
$var wire 1 8 Cin $end
$var wire 5 9 sum [4:0] $end
$var wire 4 : X [3:0] $end
$var wire 1 ; Cout $end
$upscope $end
$scope module AND $end
$var wire 4 < A [3:0] $end
$var wire 4 = B [3:0] $end
$var wire 4 > X [3:0] $end
$upscope $end
$scope module DIV $end
$var wire 4 ? A [3:0] $end
$var wire 4 @ B [3:0] $end
$var reg 4 A X [3:0] $end
$var reg 4 B Y [3:0] $end
$upscope $end
$scope module MUL $end
$var wire 4 C A [3:0] $end
$var wire 4 D B [3:0] $end
$var wire 8 E product [7:0] $end
$var wire 4 F Y [3:0] $end
$var wire 4 G X [3:0] $end
$upscope $end
$scope module NAND $end
$var wire 4 H A [3:0] $end
$var wire 4 I B [3:0] $end
$var wire 4 J X [3:0] $end
$upscope $end
$scope module NOR $end
$var wire 4 K A [3:0] $end
$var wire 4 L B [3:0] $end
$var wire 4 M X [3:0] $end
$upscope $end
$scope module NOTA $end
$var wire 4 N A [3:0] $end
$var wire 4 O X [3:0] $end
$upscope $end
$scope module NOTB $end
$var wire 4 P A [3:0] $end
$var wire 4 Q X [3:0] $end
$upscope $end
$scope module OR $end
$var wire 4 R A [3:0] $end
$var wire 4 S B [3:0] $end
$var wire 4 T X [3:0] $end
$upscope $end
$scope module SHIFT $end
$var wire 4 U A [3:0] $end
$var wire 4 V B [3:0] $end
$var reg 4 W X [3:0] $end
$var reg 4 X Y [3:0] $end
$upscope $end
$scope module SUB $end
$var wire 4 Y A [3:0] $end
$var wire 4 Z B [3:0] $end
$var wire 1 [ Bin $end
$var wire 5 \ diff [4:0] $end
$var wire 4 ] X [3:0] $end
$var wire 1 ^ Bout $end
$upscope $end
$scope module XNOR $end
$var wire 4 _ A [3:0] $end
$var wire 4 ` B [3:0] $end
$var wire 4 a X [3:0] $end
$upscope $end
$scope module XOR $end
$var wire 4 b A [3:0] $end
$var wire 4 c B [3:0] $end
$var wire 4 d X [3:0] $end
$upscope $end
$upscope $end
$scope task check4 $end
$var reg 4 e expected [3:0] $end
$upscope $end
$scope task check5 $end
$var reg 5 f expected [4:0] $end
$upscope $end
$scope task check8 $end
$var reg 8 g expected [7:0] $end
$upscope $end
$upscope $end
$enddefinitions $end
$comment Show the parameter values. $end
$dumpall
$end
#0
$dumpvars
bx g
b1000 f
bx e
b110 d
b101 c
b11 b
b1001 a
b101 `
b11 _
1^
b1110 ]
b11110 \
0[
b101 Z
b11 Y
b0 X
b1111 W
b101 V
b11 U
b111 T
b101 S
b11 R
b1010 Q
b101 P
b1100 O
b11 N
b1000 M
b101 L
b11 K
b1110 J
b101 I
b11 H
b1111 G
b0 F
b1111 E
b101 D
b11 C
b11 B
b0 A
b101 @
b11 ?
b1 >
b101 =
b11 <
0;
b1000 :
b1000 9
08
b101 7
b11 6
bz01000 5
bz01000 4
bz0001 3
b110000 2
b1111 1
bz1110 0
bz1000 /
b10101100 .
bz0111 -
b1111 ,
bz11110 +
bz1001 *
bz0110 )
b0 (
b101 '
b11 &
b0 %
b0 $
b101 #
b11 "
bz01000 !
$end
#1
bz0000 /
b0 M
bz0001 *
b1 a
bz10000 !
bz10000 5
b1110 Q
b0 :
bz10000 4
1;
b0 B
b1111 2
b1111 A
b11100000 .
b0 O
bz1111 -
b1111 T
bz01110 +
0^
bz1110 )
b1110 d
b10000 f
b1 #
b1 '
b1 7
b1 =
b1 @
b1 D
b1 I
b1 L
b1 P
b1 S
b1 V
b1 Z
b1 `
b1 c
b10000 9
b1111 E
b1110 \
b1111 "
b1111 &
b1111 6
b1111 <
b1111 ?
b1111 C
b1111 H
b1111 K
b1111 N
b1111 R
b1111 U
b1111 Y
b1111 _
b1111 b
#2
bz0100 /
b100 M
bz0101 *
b101 a
b1 F
b1100 Q
b1100 :
bz01100 4
0;
b1 X
b10011 ,
b11 W
b11 2
b11 A
b11011 1
b1011 G
b11000110 .
b110 O
bz1011 -
b1011 T
bz00110 +
b110 ]
bz1010 )
b1010 d
bz00110 !
bz00110 5
b110 f
b11 #
b11 '
b11 7
b11 =
b11 @
b11 D
b11 I
b11 L
b11 P
b11 S
b11 V
b11 Z
b11 `
b11 c
b1100 9
b11011 E
b110 \
b1001 "
b1001 &
b1001 6
b1001 <
b1001 ?
b1001 C
b1001 H
b1001 K
b1001 N
b1001 R
b1001 U
b1001 Y
b1001 _
b1001 b
b1 $
b1 (
#3
bz1111 0
b1111 J
bz1000 /
b1000 M
bz1000 *
b1000 a
bz11101 !
bz11101 5
b1010 Q
bz00111 4
b111 :
bz0000 3
b0 >
b10 B
b100000 2
b0 A
b0 X
b1011 ,
b1011 W
b1010 G
b1010 1
b0 F
b10101101 .
b1101 O
bz0111 -
b111 T
b1101 ]
bz11101 +
1^
bz0111 )
b111 d
b11101 f
b101 #
b101 '
b101 7
b101 =
b101 @
b101 D
b101 I
b101 L
b101 P
b101 S
b101 V
b101 Z
b101 `
b101 c
b111 9
b1010 E
b11101 \
b10 "
b10 &
b10 6
b10 <
b10 ?
b10 C
b10 H
b10 K
b10 N
b10 R
b10 U
b10 Y
b10 _
b10 b
#4
bz1110 0
b1110 J
bz1001 *
b1001 a
bz01000 4
b1000 :
bz0001 3
b1 >
b1111 ,
b1111 W
b110000 2
b11 B
b1111 1
b1111 G
b10101100 .
b1100 O
bz11110 +
b1110 ]
bz0110 )
b110 d
b1111 !
b1111 5
b1111 g
b1000 9
b1111 E
b11110 \
b11 "
b11 &
b11 6
b11 <
b11 ?
b11 C
b11 H
b11 K
b11 N
b11 R
b11 U
b11 Y
b11 _
b11 b
b10 $
b10 (
#5
bz1101 0
b1101 J
bz0100 /
b100 M
bz0110 *
b110 a
b11110 !
b11110 5
b1100 Q
bz01101 4
b1101 :
bz0010 3
b10 >
b1 B
b10011 2
b11 A
b1 X
b10101 ,
b101 W
b1110 G
b11110 1
b1 F
b11000101 .
b101 O
bz1011 -
b1011 T
b111 ]
bz00111 +
0^
bz1001 )
b1001 d
b11110 g
b11 #
b11 '
b11 7
b11 =
b11 @
b11 D
b11 I
b11 L
b11 P
b11 S
b11 V
b11 Z
b11 `
b11 c
b1101 9
b11110 E
b111 \
b1010 "
b1010 &
b1010 6
b1010 <
b1010 ?
b1010 C
b1010 H
b1010 K
b1010 N
b1010 R
b1010 U
b1010 Y
b1010 _
b1010 b
#6
bz1111 0
b1111 J
bz0000 /
b0 M
bz0000 *
b0 a
bz01111 4
b1111 :
bz0000 3
b0 >
b11001 ,
b1001 W
b0 B
b100 2
b100 A
b100 G
b100100 1
b10 F
b11000011 .
b11 O
bz1111 -
b1111 T
bz01001 +
b1001 ]
bz1111 )
b1111 d
b100 !
b100 5
b100 g
b1111 9
b100100 E
b1001 \
b1100 "
b1100 &
b1100 6
b1100 <
b1100 ?
b1100 C
b1100 H
b1100 K
b1100 N
b1100 R
b1100 U
b1100 Y
b1100 _
b1100 b
b11 $
b11 (
#7
bz1101 0
b1101 J
bz1000 /
b1000 M
bz1010 *
b1010 a
b10011 !
b10011 5
b1101 Q
bz01001 4
b1001 :
bz0010 3
b10 >
b1 B
b10011 2
b11 A
b0 X
b1110 ,
b1110 W
b1110 G
b1110 1
b0 F
b11011000 .
b1000 O
bz0111 -
b111 T
bz00101 +
b101 ]
bz0101 )
b101 d
b10011 g
b10 #
b10 '
b10 7
b10 =
b10 @
b10 D
b10 I
b10 L
b10 P
b10 S
b10 V
b10 Z
b10 `
b10 c
b1001 9
b1110 E
b101 \
b111 "
b111 &
b111 6
b111 <
b111 ?
b111 C
b111 H
b111 K
b111 N
b111 R
b111 U
b111 Y
b111 _
b111 b
#8
bz0111 0
b111 J
bz0001 /
b1 M
bz1001 *
b1001 a
1;
b11 Q
1^
bz10110 4
b110 :
bz1000 3
b1000 >
b1000 X
b10000010 ,
b10 W
b1010 B
b10100000 2
b0 A
b1000 G
b1111000 1
b111 F
b110101 .
b101 O
bz1110 -
b1110 T
bz11110 +
b1110 ]
bz0110 )
b110 d
bz1000 !
bz1000 5
b1000 e
b1100 #
b1100 '
b1100 7
b1100 =
b1100 @
b1100 D
b1100 I
b1100 L
b1100 P
b1100 S
b1100 V
b1100 Z
b1100 `
b1100 c
b10110 9
b1111000 E
b11110 \
b1010 "
b1010 &
b1010 6
b1010 <
b1010 ?
b1010 C
b1010 H
b1010 K
b1010 N
b1010 R
b1010 U
b1010 Y
b1010 _
b1010 b
b100 $
b100 (
#9
bz1010 0
b1010 J
bz0000 /
b0 M
bz0101 *
b101 a
bz0101 !
bz0101 5
b1010 Q
bz10100 4
b100 :
bz0101 3
b101 >
b0 B
b11 2
b11 A
b11 X
b111111 ,
b1111 W
b1011 G
b1001011 1
b100 F
b10100000 .
b0 O
bz1111 -
b1111 T
b1010 ]
bz01010 +
0^
bz1010 )
b1010 d
b101 e
b101 #
b101 '
b101 7
b101 =
b101 @
b101 D
b101 I
b101 L
b101 P
b101 S
b101 V
b101 Z
b101 `
b101 c
b10100 9
b1001011 E
b1010 \
b1111 "
b1111 &
b1111 6
b1111 <
b1111 ?
b1111 C
b1111 H
b1111 K
b1111 N
b1111 R
b1111 U
b1111 Y
b1111 _
b1111 b
#10
bz0111 0
b111 J
bz0001 /
b1 M
bz1001 *
b1001 a
b11 Q
1^
bz10110 4
b110 :
bz1000 3
b1000 >
b1000 X
b10000010 ,
b10 W
b1010 B
b10100000 2
b0 A
b1000 G
b1111000 1
b111 F
b110101 .
b101 O
bz1110 -
b1110 T
bz11110 +
b1110 ]
bz0110 )
b110 d
bz1110 !
bz1110 5
b1110 e
b1100 #
b1100 '
b1100 7
b1100 =
b1100 @
b1100 D
b1100 I
b1100 L
b1100 P
b1100 S
b1100 V
b1100 Z
b1100 `
b1100 c
b10110 9
b1111000 E
b11110 \
b1010 "
b1010 &
b1010 6
b1010 <
b1010 ?
b1010 C
b1010 H
b1010 K
b1010 N
b1010 R
b1010 U
b1010 Y
b1010 _
b1010 b
b101 $
b101 (
#11
bz1111 0
b1111 J
bz1111 /
b1111 M
bz1111 *
b1111 a
bz0000 !
bz0000 5
b1111 Q
0^
b0 :
bz00000 4
0;
bz0000 3
b0 >
b1111 B
b11111111 2
b1111 A
b0 X
b0 ,
b0 W
b0 G
b0 1
b0 F
b11111111 .
b1111 O
bz0000 -
b0 T
bz00000 +
b0 ]
bz0000 )
b0 d
b0 e
b0 #
b0 '
b0 7
b0 =
b0 @
b0 D
b0 I
b0 L
b0 P
b0 S
b0 V
b0 Z
b0 `
b0 c
b0 9
b0 E
b0 \
b0 "
b0 &
b0 6
b0 <
b0 ?
b0 C
b0 H
b0 K
b0 N
b0 R
b0 U
b0 Y
b0 _
b0 b
#12
bz0111 0
b111 J
bz0001 /
b1 M
bz1001 *
b1001 a
bz0110 !
bz0110 5
1;
b1000 G
b1111000 1
b111 F
b11 Q
1^
bz10110 4
b110 :
bz1000 3
b1000 >
b1000 X
b10000010 ,
b10 W
b1010 B
b10100000 2
b0 A
b110101 .
b101 O
bz1110 -
b1110 T
bz11110 +
b1110 ]
bz0110 )
b110 d
b110 e
b1111000 E
b1100 #
b1100 '
b1100 7
b1100 =
b1100 @
b1100 D
b1100 I
b1100 L
b1100 P
b1100 S
b1100 V
b1100 Z
b1100 `
b1100 c
b10110 9
b11110 \
b1010 "
b1010 &
b1010 6
b1010 <
b1010 ?
b1010 C
b1010 H
b1010 K
b1010 N
b1010 R
b1010 U
b1010 Y
b1010 _
b1010 b
b110 $
b110 (
#13
bz0000 0
b0 J
bz0000 /
b0 M
bz1111 *
b1111 a
bz0000 !
bz0000 5
b0 Q
bz11110 4
b1110 :
bz1111 3
b1111 >
b0 B
b1 2
b1 A
b1110 X
b11101111 ,
b1111 W
b1 G
b11100001 1
b1110 F
b0 .
b0 O
bz1111 -
b1111 T
b0 ]
bz00000 +
0^
bz0000 )
b0 d
b0 e
b1111 #
b1111 '
b1111 7
b1111 =
b1111 @
b1111 D
b1111 I
b1111 L
b1111 P
b1111 S
b1111 V
b1111 Z
b1111 `
b1111 c
b11110 9
b11100001 E
b0 \
b1111 "
b1111 &
b1111 6
b1111 <
b1111 ?
b1111 C
b1111 H
b1111 K
b1111 N
b1111 R
b1111 U
b1111 Y
b1111 _
b1111 b
#14
bz1111 0
b1111 J
bz0101 /
b101 M
bz0101 *
b101 a
0;
b1111 Q
bz01010 4
b1010 :
bz0000 3
b0 >
b0 X
b1010 ,
b1010 W
b1111 B
b11111111 2
b1111 A
b0 G
b0 1
b0 F
b11110101 .
b101 O
bz1010 -
b1010 T
bz01010 +
b1010 ]
bz1010 )
b1010 d
b1010 !
b1010 5
b1010 g
b0 #
b0 '
b0 7
b0 =
b0 @
b0 D
b0 I
b0 L
b0 P
b0 S
b0 V
b0 Z
b0 `
b0 c
b1010 9
b0 E
b1010 \
b1010 "
b1010 &
b1010 6
b1010 <
b1010 ?
b1010 C
b1010 H
b1010 K
b1010 N
b1010 R
b1010 U
b1010 Y
b1010 _
b1010 b
b111 $
b111 (
#15
bz1101 0
b1101 J
bz0000 /
b0 M
bz0010 *
b10 a
b1011000 !
b1011000 5
1;
b10 G
b1000010 1
b100 F
b1001 Q
bz10001 4
b1 :
bz0010 3
b10 >
b101 B
b1010001 2
b1 A
b101 X
b1011000 ,
b1000 W
b10010100 .
b100 O
bz1111 -
b1111 T
bz00101 +
b101 ]
bz1101 )
b1101 d
b1011000 g
b1000010 E
b110 #
b110 '
b110 7
b110 =
b110 @
b110 D
b110 I
b110 L
b110 P
b110 S
b110 V
b110 Z
b110 `
b110 c
b10001 9
b101 \
b1011 "
b1011 &
b1011 6
b1011 <
b1011 ?
b1011 C
b1011 H
b1011 K
b1011 N
b1011 R
b1011 U
b1011 Y
b1011 _
b1011 b
#16
bz1010 0
b1010 J
bz0010 /
b10 M
bz0111 *
b111 a
b1001101 !
b1001101 5
b10 Q
bz10010 4
b10 :
bz0101 3
b101 >
b100 X
b1001101 ,
b1101 W
b1010000 2
b0 A
b1000001 1
b1 G
b101010 .
b1010 O
bz1101 -
b1101 T
b1000 ]
bz11000 +
1^
bz1000 )
b1000 d
b1001101 g
b1101 #
b1101 '
b1101 7
b1101 =
b1101 @
b1101 D
b1101 I
b1101 L
b1101 P
b1101 S
b1101 V
b1101 Z
b1101 `
b1101 c
b10010 9
b1000001 E
b11000 \
b101 "
b101 &
b101 6
b101 <
b101 ?
b101 C
b101 H
b101 K
b101 N
b101 R
b101 U
b101 Y
b101 _
b101 b
#17
bz0111 0
b111 J
bz0001 /
b1 M
bz1001 *
b1001 a
b11 Q
bz10110 4
b110 :
bz1000 3
b1000 >
b10100000 2
b1010 B
b1000 X
b10000010 ,
b10 W
b1000 G
b1111000 1
b111 F
b110101 .
b101 O
bz1110 -
b1110 T
bz11110 +
b1110 ]
bz0110 )
b110 d
bz0111 !
bz0111 5
b111 e
b1100 #
b1100 '
b1100 7
b1100 =
b1100 @
b1100 D
b1100 I
b1100 L
b1100 P
b1100 S
b1100 V
b1100 Z
b1100 `
b1100 c
b10110 9
b1111000 E
b11110 \
b1010 "
b1010 &
b1010 6
b1010 <
b1010 ?
b1010 C
b1010 H
b1010 K
b1010 N
b1010 R
b1010 U
b1010 Y
b1010 _
b1010 b
b1100 $
b1100 (
#18
bz0000 !
bz0000 5
bz0000 0
b0 J
bz0000 /
b0 M
bz1111 *
b1111 a
b0 Q
bz11110 4
b1110 :
bz1111 3
b1111 >
b1110 X
b11101111 ,
b1111 W
b0 B
b1 2
b1 A
b1 G
b11100001 1
b1110 F
b0 .
b0 O
bz1111 -
b1111 T
b0 ]
bz00000 +
0^
bz0000 )
b0 d
b0 e
b1111 #
b1111 '
b1111 7
b1111 =
b1111 @
b1111 D
b1111 I
b1111 L
b1111 P
b1111 S
b1111 V
b1111 Z
b1111 `
b1111 c
b11110 9
b11100001 E
b0 \
b1111 "
b1111 &
b1111 6
b1111 <
b1111 ?
b1111 C
b1111 H
b1111 K
b1111 N
b1111 R
b1111 U
b1111 Y
b1111 _
b1111 b
#19
bz0001 !
bz0001 5
bz0111 0
b111 J
bz0001 /
b1 M
bz1001 *
b1001 a
b11 Q
bz10110 4
b110 :
bz1000 3
b1000 >
b1010 B
b10100000 2
b0 A
b1000 X
b10000010 ,
b10 W
b1000 G
b1111000 1
b111 F
b110101 .
b101 O
bz1110 -
b1110 T
b1110 ]
bz11110 +
1^
bz0110 )
b110 d
b1 e
b1100 #
b1100 '
b1100 7
b1100 =
b1100 @
b1100 D
b1100 I
b1100 L
b1100 P
b1100 S
b1100 V
b1100 Z
b1100 `
b1100 c
b10110 9
b1111000 E
b11110 \
b1010 "
b1010 &
b1010 6
b1010 <
b1010 ?
b1010 C
b1010 H
b1010 K
b1010 N
b1010 R
b1010 U
b1010 Y
b1010 _
b1010 b
b1101 $
b1101 (
#20
bz1111 !
bz1111 5
bz1111 0
b1111 J
bz1111 /
b1111 M
bz1111 *
b1111 a
b1111 Q
0^
b0 :
bz00000 4
0;
bz0000 3
b0 >
b0 X
b0 ,
b0 W
b1111 B
b11111111 2
b1111 A
b0 G
b0 1
b0 F
b11111111 .
b1111 O
bz0000 -
b0 T
bz00000 +
b0 ]
bz0000 )
b0 d
b1111 e
b0 #
b0 '
b0 7
b0 =
b0 @
b0 D
b0 I
b0 L
b0 P
b0 S
b0 V
b0 Z
b0 `
b0 c
b0 9
b0 E
b0 \
b0 "
b0 &
b0 6
b0 <
b0 ?
b0 C
b0 H
b0 K
b0 N
b0 R
b0 U
b0 Y
b0 _
b0 b
#21
bz1001 !
bz1001 5
bz0111 0
b111 J
bz0001 /
b1 M
bz1001 *
b1001 a
1;
b1000 G
b1111000 1
b111 F
b11 Q
1^
bz10110 4
b110 :
bz1000 3
b1000 >
b1010 B
b10100000 2
b0 A
b1000 X
b10000010 ,
b10 W
b110101 .
b101 O
bz1110 -
b1110 T
bz11110 +
b1110 ]
bz0110 )
b110 d
b1001 e
b1111000 E
b1100 #
b1100 '
b1100 7
b1100 =
b1100 @
b1100 D
b1100 I
b1100 L
b1100 P
b1100 S
b1100 V
b1100 Z
b1100 `
b1100 c
b10110 9
b11110 \
b1010 "
b1010 &
b1010 6
b1010 <
b1010 ?
b1010 C
b1010 H
b1010 K
b1010 N
b1010 R
b1010 U
b1010 Y
b1010 _
b1010 b
b1110 $
b1110 (
#22
bz1111 !
bz1111 5
bz0000 0
b0 J
bz0000 /
b0 M
bz1111 *
b1111 a
b0 Q
bz11110 4
b1110 :
bz1111 3
b1111 >
b1110 X
b11101111 ,
b1111 W
b0 B
b1 2
b1 A
b1 G
b11100001 1
b1110 F
b0 .
b0 O
bz1111 -
b1111 T
b0 ]
bz00000 +
0^
bz0000 )
b0 d
b1111 e
b1111 #
b1111 '
b1111 7
b1111 =
b1111 @
b1111 D
b1111 I
b1111 L
b1111 P
b1111 S
b1111 V
b1111 Z
b1111 `
b1111 c
b11110 9
b11100001 E
b0 \
b1111 "
b1111 &
b1111 6
b1111 <
b1111 ?
b1111 C
b1111 H
b1111 K
b1111 N
b1111 R
b1111 U
b1111 Y
b1111 _
b1111 b
#23
bz1111 0
b1111 J
bz0000 *
b0 a
0;
b1010 Q
bz01111 4
b1111 :
bz0000 3
b0 >
b10 2
b10 A
b10 X
b101011 ,
b1011 W
b10 G
b110010 1
b11 F
b10100101 .
b101 O
bz00101 +
b101 ]
bz1111 )
b1111 d
b10100101 !
b10100101 5
b10100101 g
b101 #
b101 '
b101 7
b101 =
b101 @
b101 D
b101 I
b101 L
b101 P
b101 S
b101 V
b101 Z
b101 `
b101 c
b1111 9
b110010 E
b101 \
b1010 "
b1010 &
b1010 6
b1010 <
b1010 ?
b1010 C
b1010 H
b1010 K
b1010 N
b1010 R
b1010 U
b1010 Y
b1010 _
b1010 b
b1111 $
b1111 (
#24
b1111 !
b1111 5
b0 Q
b0 X
b1110 ,
b1110 W
b0 2
b0 A
b0 G
b0 1
b0 F
b1111 .
b1111 O
b1 ]
bz10001 +
1^
b1111 g
b1111 #
b1111 '
b1111 7
b1111 =
b1111 @
b1111 D
b1111 I
b1111 L
b1111 P
b1111 S
b1111 V
b1111 Z
b1111 `
b1111 c
b1111 9
b0 E
b10001 \
b0 "
b0 &
b0 6
b0 <
b0 ?
b0 C
b0 H
b0 K
b0 N
b0 R
b0 U
b0 Y
b0 _
b0 b
